WACCBIP RNA-seq workshop - Differential Expression with DESeq2
…
Add a threshold column for genes we wish to label as significant

Order each table by padj so significant genes are at the top

result_list2<-result_list %>% 
  map(~as.data.frame(.x) %>% 
        rownames_to_column("geneID") %>% 
        mutate(threshold=case_when(padj<=padj_thresh & abs(log2FoldChange)>=l2fc_thresh~"Significant",T~"Not Significant")) %>% 
        arrange(padj) %>% 
        as_tibble()
  )
result_list2

$condition_MOV10_OE_vs_Control
# A tibble: 58,396 × 7
   geneID          baseMean log2FoldChange  lfcSE    pvalue      padj threshold 
   <chr>              <dbl>          <dbl>  <dbl>     <dbl>     <dbl> <chr>     
 1 ENSG00000155363   94561.          7.47  0.134  0         0         Significa…
 2 ENSG00000189060    7874.          1.52  0.0704 1.33e-104 1.19e-100 Significa…
 3 ENSG00000173110     257.          6.52  0.357  1.53e- 74 9.12e- 71 Significa…
 4 ENSG00000270882    2234.          1.73  0.101  1.39e- 66 6.22e- 63 Significa…
 5 ENSG00000187837    1605.          1.48  0.0936 1.52e- 57 5.30e- 54 Significa…
 6 ENSG00000265972    5203.          1.38  0.0876 1.78e- 57 5.30e- 54 Significa…
 7 ENSG00000155090    1699.          1.20  0.0810 8.51e- 51 2.17e- 47 Significa…
 8 ENSG00000102317    8191.         -0.752 0.0543 1.30e- 44 2.84e- 41 Significa…
 9 ENSG00000112972   12428.          0.926 0.0670 1.43e- 44 2.84e- 41 Significa…
10 ENSG00000142002    2395.         -0.765 0.0599 1.86e- 38 3.32e- 35 Significa…
# ℹ 58,386 more rows

$condition_MOV10_KD_vs_Control
# A tibble: 58,396 × 7
   geneID          baseMean log2FoldChange  lfcSE   pvalue     padj threshold  
   <chr>              <dbl>          <dbl>  <dbl>    <dbl>    <dbl> <chr>      
 1 ENSG00000116962    6310.          1.10  0.0693 3.89e-58 6.44e-54 Significant
 2 ENSG00000143183    1784.          1.19  0.0792 3.08e-52 2.55e-48 Significant
 3 ENSG00000270882    2234.          1.67  0.112  2.47e-51 1.37e-47 Significant
 4 ENSG00000038274    2424.         -1.07  0.0765 1.37e-45 5.65e-42 Significant
 5 ENSG00000168036   11651.          0.812 0.0583 4.68e-45 1.55e-41 Significant
 6 ENSG00000124762    2759.          1.16  0.0834 6.39e-45 1.76e-41 Significant
 7 ENSG00000116473    2151.         -1.02  0.0735 8.83e-45 2.09e-41 Significant
 8 ENSG00000082458    4642.         -0.732 0.0563 8.88e-40 1.84e-36 Significant
 9 ENSG00000109971   22609.          0.739 0.0590 4.83e-37 8.88e-34 Significant
10 ENSG00000129250    2738.         -1.06  0.0854 7.63e-37 1.24e-33 Significant
# ℹ 58,386 more rows

Our result table contains Ensembl gene identifier but we may want to add more annotations like the gene name and biotype. We can fetch Ensembl annotations from the R package AnnotationHub or from the BioMart website. We already have a file called genes.tsv which has some of this additional information.

genes<-read_tsv("salmon/genes.tsv")
genes

# A tibble: 69,340 × 4
   gene_id         gene_name   gene_biotype                        entrezid
   <chr>           <chr>       <chr>                                  <dbl>
 1 ENSG00000223972 DDX11L1     transcribed_unprocessed_pseudogene     84771
 2 ENSG00000227232 WASH7P      unprocessed_pseudogene                    NA
 3 ENSG00000278267 MIR6859-1   miRNA                              102466751
 4 ENSG00000243485 MIR1302-2HG lncRNA                                    NA
 5 ENSG00000284332 MIR1302-2   miRNA                              100302278
 6 ENSG00000237613 FAM138A     lncRNA                                645520
 7 ENSG00000268020 OR4G4P      unprocessed_pseudogene                    NA
 8 ENSG00000240361 OR4G11P     transcribed_unprocessed_pseudogene        NA
 9 ENSG00000186092 OR4F5       protein_coding                         79501
10 ENSG00000238009 <NA>        lncRNA                                    NA
# ℹ 69,330 more rows
…
